link,count,n_users
https://www.hollywoodreporter.com/features/hes-radioactive-inside-johnny-depps-self-made-implosion,7,6
https://youtu.be/uretrfMA-Io,7,6
https://www.dailymail.co.uk/news/article-7947733/Amber-Heard-admits-hitting-ex-husband-Johnny-Depp-pelting-pots-pans-tape.html,4,4
https://www.judiciary.uk/judgments/depp-v-news-group-newspapers-ltd/,7,3
https://youtu.be/XiuUzvZMyro,5,3
https://www.google.com/amp/s/amp.cnn.com/cnn/2020/11/02/media/johnny-depp-libel-ruling-scli-intl-gbr/index.html,2,2
https://www.change.org/p/dc-entertainment-remove-amber-heard-from-aquaman-2,2,2
https://youtu.be/aca0KWoHtqQ,2,2
https://youtu.be/Lc4hf4w7QXA,2,2
https://www.judiciary.uk/wp-content/uploads/2020/11/Depp_V_News_Group_Newspapers_Ltd_judgment.pdf,2,2
https://wegotthiscovered.com/movies/pay-amber-heard-33000-give-talk-domestic-violence/,2,2
https://www.bbc.com/news/uk-54779430,2,2
https://www.rollingstone.com/feature/the-trouble-with-johnny-depp-666010/,3,2
https://www.change.org/p/dc-entertainment-remove-amber-heard-from-aquaman-2?signed=true,2,2
https://www.youtube.com/watch?v=Nhz9PCbnkkQ,2,2
https://www.harrywalker.com/speakers/amber-heard,1,1
https://static1.businessinsider.com/image/5ddc336bfd9db244c913783d/alonzo-mourning.gif,1,1
https://reddit.com/kdqp0s,1,1
https://discord.gg/JAVrxdX5,1,1
https://www.reddit.com/poll/kdqsfm,1,1
https://www.reddit.com/message/compose?to=%2Fr%2Funpopularopinion,1,1
https://www.huffpost.com/entry/men-women-prison-sentence-length-gender-gap_n_1874742,1,1
https://youtu.be/T-aiiDrEuhE,1,1
https://pwestpathfinder.com/wp-content/uploads/2020/03/Mens-Rights-Infographic-1.jpg,1,1
https://old.reddit.com/r/trashy/about/sidebar,1,1
https://news.sky.com/story/children-accidentally-shown-horror-film-instead-of-detective-pikachu-at-cinema-11717135,1,1
http://redd.it/b1hct4/,2,1
https://globalfreedomofexpression.columbia.edu/cases/john-christopher-depp-ii-v-news-group-newspapers-ltd-and-dan-wootton/,1,1
https://en.m.wikipedia.org/wiki/Johnny_Depp,1,1
https://www.tmz.com/2016/08/12/johnny-depp-amber-heard-throws-wine-glass-domestic-violence-video/,1,1
https://capcom.fandom.com/wiki/Zangief,1,1
https://www.judiciary.uk/wp-content/uploads/2020/11/Judgment-FINAL.pdf,4,1
https://www.judiciary.uk/judgments/depp-v-news-group-newspapers-ltd/?fbclid=IwAR1VJDEiGlv6G1BqY2YWhSZlQx-wGmoAPvcrcaylKpl-khu_tEjylgmfkp4,1,1
https://www.reddit.com/r/entertainment/comments/k1cv4p/johnny_depp_refused_permission_to_appeal_uk_libel/gdocqm6/?utm_source=share&utm_medium=ios_app&utm_name=iossmf&context=3,1,1
https://www.thehotline.org/stakeholders/domestic-violence-statistics/,1,1
https://www.reddit.com/r/awfuleverything/comments/kdznjp/amber_heard_hired_for_33000_per_talk_in_domestic/gg0g6be?utm_medium=android_app&utm_source=share&context=3,1,1
https://www.reddit.com/r/asktrp/comments/i5o0f9/where_do_meet_girl/?utm_source=share&utm_medium=ios_app&utm_name=iossmf,1,1
https://www.thethings.com/what-really-went-on-between-amber-heard-and-elon-musk/,1,1
https://m.youtube.com/watch?v=Nhz9PCbnkkQ,1,1
https://en.wikipedia.org/wiki/DARVO,1,1
https://www.google.com/amp/s/www.insider.com/jk-rowling-terf-online-store-selling-anti-trans-merch-2020-9%3famp,1,1
https://www.tmz.com/2016/08/15/johnny-depp-cuts-off-finger-amber-heard-photos/,1,1
https://en.m.wikipedia.org/wiki/Substantial_truth,1,1
https://en.wikipedia.org/wiki/Presumption_of_innocence,1,1
https://www.apa.org/topics/anger/control,1,1
https://m.huffpost.com/us/entry/us_5d8d58c5e4b0019647a5ebef,1,1
https://en.m.wikipedia.org/wiki/Libel_tourism,1,1
https://www.dailymail.co.uk/news/article-1311004/Judges-ordered-mercy-women-criminals-deciding-sentences.html,1,1
https://avoiceformen.com/featured/sanctified-bigotry/,1,1
https://www.reddit.com/r/dankmemescraft/,2,1
https://www.reddit.com/r/newcopypasta/comments/k5o6xw/this_sub_is_completely_useless_irtr/,1,1
https://www.youtube.com/watch?v=uipmMxaK8jA,1,1
https://deadline.com/2020/11/johnny-depp-loses-wife-beater-libel-case-uk-tabloid-the-sun-1234607486/,1,1
https://screenrant.com/johnny-depp-career-future-impact-hollywood-movie-studios/,1,1
https://m.youtube.com/watch?feature=emb_title&v=L1x07aqi1-0,1,1
https://www.youtube.com/watch?v=mzbwMAj73UQ&ab_channel=LostBeyondPluto,1,1
https://cdn.app-zenonzard.com/dmz/deck.html?code=AwlUZWFtIERlcHAGBQEyATIDAwnRAcMFwgGZCpIKkQqXCpEHngoJAQAAAAAAAAAAAgWWCqoKmArDBrYHBQAAAAABAQO2B58HnwcDBREB,1,1
"https://www.small-screen.co.uk/warner-bros-cant-fire-amber-heard-from-aquaman-2-due-to-her-contract/#:~:text=It's%20been%20revealed%20that%20Warner,playing%20Mera%20in%20Aquaman%202",1,1
https://medium.com/@OfcrACab/confessions-of-a-former-bastard-cop-bb14d17bc759,1,1
https://www.reddit.com/r/movies/comments/kaaci7/natalie_portman_being_sexualized_as_lolita_figure/gf9qwm3/,1,1
https://www.youtube.com/channel/UCg0C-N_MPYYOXyF4T3jMxNQ,1,1
https://twitter.com/planetmarshall/status/1323219233027870720?s=20,2,1
http://chng.it/6qfMgWGnfh,1,1
https://www.reddit.com/message/compose?to=/r/memes&subject=&message=,1,1
https://www.reddit.com/r/askreddit/submit?selftext=true&title=Amber,1,1
https://reddit.com/k8hv9h,1,1
https://www.reddit.com/poll/k8hwei,1,1
https://www.reddit.com/r/movies/comments/k9o9sd/johnny_depp_heads_to_uk_court_of_appeal_in_bid_to,1,1
https://old.reddit.com/r/AreTheStraightsOK/comments/k315k6/rules_and_submissions_update_end_of_november/,1,1
https://www.reddit.com/poll/kaoilq,1,1
https://reddit.com/kaogss,1,1
https://twitter.com/AM59193334/status/1336963479140507649,2,1
https://imgur.com/gallery/gRbkbEe,1,1
https://opdv.ny.gov/professionals/abusers/genderandipv.html#note75,1,1
https://youtu.be/7twghzoI46w,1,1
https://www.reddit.com/r/askteenboys/wiki/user-flair,1,1
https://www.vanityfair.com/hollywood/2015/04/johnny-depp-missing,1,1
https://github.com/Toldry/RedditAutoCrosspostBot,1,1
https://youtu.be/5LGEiIL1__s,1,1
https://www.youtube.com/watch?v=3gWTTQWrB3I#t=16s,1,1
https://www.reuters.com/article/us-health-coronavirus-britain-verdict-ju/factbox-johnny-depp-loses-wife-beater-libel-case-key-parts-of-the-judgment-idUSKBN27I14N,2,1
https://www.youtube.com/watch?v=Vp9599kwnhM,1,1
https://www.ncbi.nlm.nih.gov/pmc/articles/PMC1854883/,1,1
https://www.google.com/amp/s/www.glamour.com/story/why-is-nobody-talking-about-marilyn-mansons-fantasy-of-killing-evan-rachel-wood/amp,1,1
https://www.youtube.com/watch?app=desktop&v=uZMMzTAv1v4,1,1
https://www.reddit.com/message/compose?to=%2Fr%2FRedditMoment&subject=About,2,1
http://www.reddit.com/r/AskReddit/wiki/index#wiki_-rule_1-,1,1
https://www.reddit.com/r/TooAfraidToAsk/comments/jjusuf/update_politicselection_moratorium_until_after/,1,1
https://www.google.ca/amp/s/www.dailymail.co.uk/news/article-7947733/amp/Amber-Heard-admits-hitting-ex-husband-Johnny-Depp-pelting-pots-pans-tape.html,1,1
https://www.youtube.com/watch?v=U_MYHvZZizY,1,1
https://i.imgur.com/hOw0VXa.png,1,1
https://youtu.be/NCZUqJc-jhU,1,1
https://www.wmespeakers.com/speaker/amber-heard,1,1
https://www.reddit.com/r/redditmoment/comments/kez2bo/best_of_rredditmoment_2020_nominations_thread/,3,1
https://youtu.be/ZfeM6J5yGBg,1,1
https://images.app.goo.gl/d5zPHUhG5LEFxDoz8,2,1
https://de.m.wikipedia.org/wiki/Bundeswehr,1,1
http://www.reddit.com/r/me_irl/comments/2u8n5h/me_irl/,2,1
https://people.com/movies/amber-heard-makes-7-figure-donation-childrens-hospital-after-johnny-depp-divorce/?amp=true,1,1
https://www.reddit.com/r/interestingasfuck/about/rules/,1,1
https://www.reddit.com/message/compose?to=%2Fr%2FMensLib,1,1
https://www.reddit.com/r/WinStupidPrizes/comments/kkw0o0/australian_who_breaks_quarantine_restrictions_to/gh5chx8/?utm_source=share&utm_medium=ios_app&utm_name=iossmf&context=3,1,1
https://www.researchgate.net/publication/233717660_Thirty_Years_of_Denying_the_Evidence_on_Gender_Symmetry_in_Partner_Violence_Implications_for_Prevention_and_Treatment,1,1
http://www.reddit.com/message/compose?to=%2Fr%2Fspecialsnowflake,1,1
https://reddit.com/kn05yn,1,1
https://www.reddit.com/r/funny/wiki/rules#wiki_10._no_sms_or_social_media_content_.28including_reddit.29,1,1
https://www.reddit.com/message/compose?to=%2Fr%2FDownvotedToOblivion&subject=Submission%20Removal,1,1
https://www.google.com/amp/s/amp.theguardian.com/film/2020/nov/02/johnny-depp-trial-how-the-judge-ruled-on-14-alleged-assaults,1,1
https://redd.it/j2173n,2,1
https://www.reddit.com/r/Kibbe/comments/i8m6ks/typing_guidelines_for_newcomers/,2,1
https://www.youtube.com/watch?v=SpGq-Q19Vbo,1,1
https://youtu.be/KBSb-wAs20g,1,1
https://www.reddit.com/r/animecirclejerk/comments/i5jvex/ok_folks_back_to_our_usual_jerking_rules_updates/,1,1
https://mobile.twitter.com/truthhurts06/status/1283068465088208897/photo/1?ref_src=twsrc%5Etfw%7Ctwcamp%5Etweetembed%7Ctwterm%5E1283068465088208897%7Ctwgr%5E%7Ctwcon%5Es1_&ref_url=https%3A%2F%2Fd-361822911914906553.ampproject.net%2F2011252111003%2Fframe.html,1,1
https://www.reddit.com/message/compose?to=%2Fr%2Fbangladesh,2,1
https://www.reddit.com/r/FuckYouKaren/comments/hvhk5k/scammers_are_here_and_want_your_money_give_me_a/,2,1
http://www.reddit.com/r/AskReddit/wiki/index#wiki_-rule_2-,6,1
https://reddit.com/message/compose?to=/r/AskWomen,1,1
https://www.change.org/p/warner-brothers-replace-amber-heard-in-justice-league-with-danny-devito-in-a-wig,2,1
https://en.m.wikipedia.org/wiki/Psychological_abuse,1,1
https://www.reddit.com/r/FuckYouKaren/comments/ke4c4g/i_cant_do_no_wrong/gg1jq3e?utm_medium=android_app&utm_source=share&context=3,2,1
https://youtu.be/04Cz-uOognU,1,1
https://www.theguardian.com/film/2020/feb/27/johnny-depp-amber-heard-threats-to-ex-wife-in-texts-london-high-court,1,1
"https://www.harrywalker.com/speakers/amber-heard?ret=search&terms=Amber,heard&y=310",1,1
https://www.theguardian.com/film/2020/nov/02/johnny-depp-trial-how-the-judge-ruled-on-14-alleged-assaults,4,1
https://www.google.com/url?sa=t&source=web&rct=j&url=https://m.youtube.com/watch%3Fv%3DszybEhqUmVI%26list%3DPLkJemc4T5NYZpiVwtRDxXfZvcLzovtITo%26index%3D28&ved=2ahUKEwj85ZPB_dHtAhXLwVkKHRtlB48QFjAAegQIARAB&usg=AOvVaw2u-FQB1mmiN0tVpRlzdvSV,1,1
https://streamable.com/fy29r5,1,1
https://www.sausageroll.com.au/lifestyle/celebrities/exposed-the-sun-libel-trial-judges-son-works-for-rupert-murdoch/,1,1
https://youtu.be/j7GpnniRg_E,2,1
https://i.ytimg.com/vi/K0deVt2oANM/hqdefault.jpg,1,1
https://twitter.com/winonasrider/status/1223371981296455680,3,1
https://www.nbcnews.com/think/opinion/johnny-depp-loses-libel-case-tied-amber-heard-win-domestic-ncna1245882,1,1
https://www.reddit.com/poll/kn06ab,1,1
https://int.nyt.com/data/documenttools/lawsuit-fka-twigs-shia-la-beouf/35d97cbb8df917bf/full.pdf,1,1
https://www.ibtimes.co.uk/amber-heard-charges-33k-give-talks-domestic-violence-1686689,1,1
https://www.theguardian.com/music/2015/dec/18/madonna-says-sean-penn-never-hit-her-as-she-offers-evidence-for-her-ex-husband,1,1
https://ifunny.co/fun/60rNVzJF8?s=cl,2,1
https://m.youtube.com/watch?v=LUT4sS0lsss,1,1
https://discord.gg/n2b3ezRN,1,1
https://www.reddit.com/r/haikusbot/,2,1
https://www.reddit.com/poll/kevhym,1,1
https://movie-sounds.org/gangster-movie-sound-clips/quotes-with-sound-clips-from-goodfellas/every-once-in-a-while-i-d-have-to-take-a-beating-but-by-then-i-didn-t-care-the-way-i-saw-it-everybody-takes-a-beating-sometime,1,1
https://reddit.com/kevgbx,1,1
https://www.cnbc.com/2020/05/22/metoo-lawyer-is-no-longer-representing-biden-accuser-tara-reade.html,1,1
https://www.google.com/search?q=nazi+pug&oq=nazi+pug&aqs=chrome,1,1
https://youtu.be/qQi3_PpYzIM,1,1
https://www.dailywire.com/news/for-33000-you-can-now-hire-amber-heard-who-admitted-on-tape-to-abusing-johnny-depp-to-talk-about-domestic-violence?%3Futm_source=twitter&utm_medium=social&utm_campaign=dwtwitter,1,1
https://www.youtube.com/watch?v=4eHMgXlugIU&index=104&list=LLYc8ATVVIhJOfmCNRaRuVVA,1,1
https://twitter.com/AOC/status/1339033546313371648,1,1
https://www.reddit.com/poll/kel1wy,1,1
https://old.reddit.com/message/compose?to=%2Fr%2Fexplainlikeimfive&subject=Can%20you%20review%20my%20thread?&message=Link:%20/r/explainlikeimfive/comments/ke90d8/eli5_how_is_it_possible_that_someone_like_amber/%0A%0APlease%20answer%20the%20following%203%20questions:%0A%0A1.%20The%20concept%20I%20want%20explained:%0A%0A2.%20Link%20to%20the%20search%20you%20did%20to%20look%20for%20past%20posts%20on%20the%20ELI5%20subreddit:%0A%0A3.%20How%20is%20this%20post%20unique,1,1
https://reddit.com/kel08m,1,1
https://greatnonprofits.org/categories/view/domestic-violence,1,1
https://m.ranker.com/list/celebrities-charged-with-domestic-abuse/celebrity-lists,1,1
https://youtu.be/mUclMrpr6UU,1,1
